{
  "response": {
    "results": [
      {
        "id": "d7a7631d3c1218abc22722c9db9b35c3e77ddfea",
        "device": {
          "androidVersionRelease": "10.0.0",
          "androidSdkInt": 9999,
          "androidIncremental": "iOS-NA",
          "model": "iPhone 5C",
          "name": "iPhone 5C",
          "board": "s5l8950x",
          "manufacturer": "Apple",
          "brand": "Apple",
          "industrialName": "iPhone",
          "serial": "F73LDKZHFFHG",
          "fingerPrint": "hif28938hf89h89230j8jw009",
          "screenWidth": 640,
          "screenHeight": 1136,
          "gpu": {
            "vendor": "Imagination",
            "renderer": "PowerVR SGX543MP3 (triple-core graphics)",
            "glExtensions": [
              "iOS-NA"
            ],
            "glVersion": "iOS-NA"
          },
          "cpu": {
            "name": "Apple-designed ARMv7s",
            "arch": "Apple A6",
            "numCores": 2,
            "minFreq": 0,
            "maxFreq": 1300000
          },
          "batteryVoltage": 3800,
          "batteryTech": "Li-ion",
          "hardware": "N48AP",
          "buildId": "14G60",
          "buildHost": "Box in Cupertino",
          "refreshRate": 60,
          "batteryCapacity": 0
        },
        "app": {
          "name": "Ether Drop!",
          "version": "1.0.0",
          "packageName": "com.zebproj.etherpad",
          "lastUpdated": "iOS-NA",
          "versionCodeStr": "123"
        },
        "user": {
          "userPlayAccount": "ether@gmail.com",
          "dataSet": "asdfwef3r23423423rf"
        },
        "zipName": "data.zip",
        "originalUser": {
          "userPlayAccount": "ether@gmail.com",
          "dataSet": "asdfwef3r23423423rf"
        },
        "owners": {
          "companyId": "asdfae3eer3232423-"
        },
        "isActive": true,
        "imported": false,
        "timePushed": 1558469270909,
        "timePlayed": 605,
        "fpsMin": 2,
        "fpsMax": 60,
        "fpsMedian": 59,
        "fpsStability": 80.56951423785594,
        "stabIndex": 5.028523489932886,
        "metrics": {
          "batt": true,
          "memory": true,
          "fps": true,
          "cpu": true,
          "corefreq": false,
          "coreusage": true,
          "threads": false,
          "othergpu": false,
          "network": false,
          "screenshots": true,
          "instpower": false,
          "imggpu": true,
          "janks": false,
          "markers": false,
          "energy": true,
          "sesslabel": false
        },
        "firstBat": 90,
        "lastBat": 87,
        "isCharging": true,
        "mAh": 34,
        "mAAvg": 204,
        "expectedBatteryLifeDuration": 445.266637802124,
        "cpuUsageMedian": 66.68707275390625,
        "cpuUsageAvg": 72.51085562844878,
        "cpuUsageMin": 32.54605484008789,
        "cpuUsageMax": 117.42019653320312,
        "gpuUsageMin": 0,
        "gpuUsageMedian": 15,
        "gpuUsageAvg": 15.199329983249582,
        "gpuUsageMax": 42,
        "memUsageMin": 227,
        "memUsageMedian": 266,
        "memUsageAvg": 270,
        "memUsageMax": 332,
        "minAbsTSCharts": 1558468646746,
        "strictMode": false,
        "internalUserId": 0,
        "sessionDate": 1558468647971,
        "appTrialVersion": false,
        "appTrialExpired": false,
        "appVersionCode": 10000,
        "robust": false,
        "software": 2,
        "zipBackupFile": {
          "type": "disk",
          "path": "/root/a/path.zip",
          "size": 20972307
        }
      },
      {
        "id": "d7a7631d3c1218abc22722c9db9b35c3e77ddfea",
        "device": {
          "androidVersionRelease": "10.0.0",
          "androidSdkInt": 9999,
          "androidIncremental": "iOS-NA",
          "model": "iPhone 5C",
          "name": "iPhone 5C",
          "board": "s5l8950x",
          "manufacturer": "Apple",
          "brand": "Apple",
          "industrialName": "iPhone",
          "serial": "F73LDKZHFFHG",
          "fingerPrint": "hif28938hf89h89230j8jw009",
          "screenWidth": 640,
          "screenHeight": 1136,
          "gpu": {
            "vendor": "Imagination",
            "renderer": "PowerVR SGX543MP3 (triple-core graphics)",
            "glExtensions": [
              "iOS-NA"
            ],
            "glVersion": "iOS-NA"
          },
          "cpu": {
            "name": "Apple-designed ARMv7s",
            "arch": "Apple A6",
            "numCores": 2,
            "minFreq": 0,
            "maxFreq": 1300000
          },
          "batteryVoltage": 3800,
          "batteryTech": "Li-ion",
          "hardware": "N48AP",
          "buildId": "14G60",
          "buildHost": "Box in Cupertino",
          "refreshRate": 60,
          "batteryCapacity": 0
        },
        "app": {
          "name": "Ether Drop!",
          "version": "1.0.0",
          "packageName": "com.zebproj.etherpad",
          "lastUpdated": "iOS-NA",
          "versionCodeStr": "123"
        },
        "user": {
          "userPlayAccount": "ether@gmail.com",
          "dataSet": "asdfwef3r23423423rf"
        },
        "zipName": "data.zip",
        "originalUser": {
          "userPlayAccount": "ether@gmail.com",
          "dataSet": "asdfwef3r23423423rf"
        },
        "owners": {
          "companyId": "asdfae3eer3232423-"
        },
        "isActive": true,
        "imported": false,
        "timePushed": 1558469270909,
        "timePlayed": 605,
        "fpsMin": 2,
        "fpsMax": 60,
        "fpsMedian": 59,
        "fpsStability": 80.56951423785594,
        "stabIndex": 5.028523489932886,
        "metrics": {
          "batt": true,
          "memory": true,
          "fps": true,
          "cpu": true,
          "corefreq": false,
          "coreusage": true,
          "threads": false,
          "othergpu": false,
          "network": false,
          "screenshots": true,
          "instpower": false,
          "imggpu": true,
          "janks": false,
          "markers": false,
          "energy": true,
          "sesslabel": false
        },
        "firstBat": 90,
        "lastBat": 87,
        "isCharging": true,
        "mAh": 34,
        "mAAvg": 204,
        "expectedBatteryLifeDuration": 445.266637802124,
        "cpuUsageMedian": 66.68707275390625,
        "cpuUsageAvg": 72.51085562844878,
        "cpuUsageMin": 32.54605484008789,
        "cpuUsageMax": 117.42019653320312,
        "gpuUsageMin": 0,
        "gpuUsageMedian": 15,
        "gpuUsageAvg": 15.199329983249582,
        "gpuUsageMax": 42,
        "memUsageMin": 227,
        "memUsageMedian": 266,
        "memUsageAvg": 270,
        "memUsageMax": 332,
        "minAbsTSCharts": 1558468646746,
        "strictMode": false,
        "internalUserId": 0,
        "sessionDate": 1558468647971,
        "appTrialVersion": false,
        "appTrialExpired": false,
        "appVersionCode": 10000,
        "robust": false,
        "software": 2,
        "zipBackupFile": {
          "type": "disk",
          "path": "/root/a/path.zip",
          "size": 20972307
        }
      },
      {
        "id": "d7a7631d3c1218abc22722c9db9b35c3e77ddfea",
        "device": {
          "androidVersionRelease": "10.0.0",
          "androidSdkInt": 9999,
          "androidIncremental": "iOS-NA",
          "model": "iPhone 5C",
          "name": "iPhone 5C",
          "board": "s5l8950x",
          "manufacturer": "Apple",
          "brand": "Apple",
          "industrialName": "iPhone",
          "serial": "F73LDKZHFFHG",
          "fingerPrint": "hif28938hf89h89230j8jw009",
          "screenWidth": 640,
          "screenHeight": 1136,
          "gpu": {
            "vendor": "Imagination",
            "renderer": "PowerVR SGX543MP3 (triple-core graphics)",
            "glExtensions": [
              "iOS-NA"
            ],
            "glVersion": "iOS-NA"
          },
          "cpu": {
            "name": "Apple-designed ARMv7s",
            "arch": "Apple A6",
            "numCores": 2,
            "minFreq": 0,
            "maxFreq": 1300000
          },
          "batteryVoltage": 3800,
          "batteryTech": "Li-ion",
          "hardware": "N48AP",
          "buildId": "14G60",
          "buildHost": "Box in Cupertino",
          "refreshRate": 60,
          "batteryCapacity": 0
        },
        "app": {
          "name": "Ether Drop!",
          "version": "1.0.0",
          "packageName": "com.zebproj.etherpad",
          "lastUpdated": "iOS-NA",
          "versionCodeStr": "123"
        },
        "user": {
          "userPlayAccount": "ether@gmail.com",
          "dataSet": "asdfwef3r23423423rf"
        },
        "zipName": "data.zip",
        "originalUser": {
          "userPlayAccount": "ether@gmail.com",
          "dataSet": "asdfwef3r23423423rf"
        },
        "owners": {
          "companyId": "asdfae3eer3232423-"
        },
        "isActive": true,
        "imported": false,
        "timePushed": 1558469270909,
        "timePlayed": 605,
        "fpsMin": 2,
        "fpsMax": 60,
        "fpsMedian": 59,
        "fpsStability": 80.56951423785594,
        "stabIndex": 5.028523489932886,
        "metrics": {
          "batt": true,
          "memory": true,
          "fps": true,
          "cpu": true,
          "corefreq": false,
          "coreusage": true,
          "threads": false,
          "othergpu": false,
          "network": false,
          "screenshots": true,
          "instpower": false,
          "imggpu": true,
          "janks": false,
          "markers": false,
          "energy": true,
          "sesslabel": false
        },
        "firstBat": 90,
        "lastBat": 87,
        "isCharging": true,
        "mAh": 34,
        "mAAvg": 204,
        "expectedBatteryLifeDuration": 445.266637802124,
        "cpuUsageMedian": 66.68707275390625,
        "cpuUsageAvg": 72.51085562844878,
        "cpuUsageMin": 32.54605484008789,
        "cpuUsageMax": 117.42019653320312,
        "gpuUsageMin": 0,
        "gpuUsageMedian": 15,
        "gpuUsageAvg": 15.199329983249582,
        "gpuUsageMax": 42,
        "memUsageMin": 227,
        "memUsageMedian": 266,
        "memUsageAvg": 270,
        "memUsageMax": 332,
        "minAbsTSCharts": 1558468646746,
        "strictMode": false,
        "internalUserId": 0,
        "sessionDate": 1558468647971,
        "appTrialVersion": false,
        "appTrialExpired": false,
        "appVersionCode": 10000,
        "robust": false,
        "software": 2,
        "zipBackupFile": {
          "type": "disk",
          "path": "/root/a/path.zip",
          "size": 20972307
        }
      },
      {
        "id": "d7a7631d3c1218abc22722c9db9b35c3e77ddfea",
        "device": {
          "androidVersionRelease": "10.0.0",
          "androidSdkInt": 9999,
          "androidIncremental": "iOS-NA",
          "model": "iPhone 5C",
          "name": "iPhone 5C",
          "board": "s5l8950x",
          "manufacturer": "Apple",
          "brand": "Apple",
          "industrialName": "iPhone",
          "serial": "F73LDKZHFFHG",
          "fingerPrint": "hif28938hf89h89230j8jw009",
          "screenWidth": 640,
          "screenHeight": 1136,
          "gpu": {
            "vendor": "Imagination",
            "renderer": "PowerVR SGX543MP3 (triple-core graphics)",
            "glExtensions": [
              "iOS-NA"
            ],
            "glVersion": "iOS-NA"
          },
          "cpu": {
            "name": "Apple-designed ARMv7s",
            "arch": "Apple A6",
            "numCores": 2,
            "minFreq": 0,
            "maxFreq": 1300000
          },
          "batteryVoltage": 3800,
          "batteryTech": "Li-ion",
          "hardware": "N48AP",
          "buildId": "14G60",
          "buildHost": "Box in Cupertino",
          "refreshRate": 60,
          "batteryCapacity": 0
        },
        "app": {
          "name": "Ether Drop!",
          "version": "1.0.0",
          "packageName": "com.zebproj.etherpad",
          "lastUpdated": "iOS-NA",
          "versionCodeStr": "123"
        },
        "user": {
          "userPlayAccount": "ether@gmail.com",
          "dataSet": "asdfwef3r23423423rf"
        },
        "zipName": "data.zip",
        "originalUser": {
          "userPlayAccount": "ether@gmail.com",
          "dataSet": "asdfwef3r23423423rf"
        },
        "owners": {
          "companyId": "asdfae3eer3232423-"
        },
        "isActive": true,
        "imported": false,
        "timePushed": 1558469270909,
        "timePlayed": 605,
        "fpsMin": 2,
        "fpsMax": 60,
        "fpsMedian": 59,
        "fpsStability": 80.56951423785594,
        "stabIndex": 5.028523489932886,
        "metrics": {
          "batt": true,
          "memory": true,
          "fps": true,
          "cpu": true,
          "corefreq": false,
          "coreusage": true,
          "threads": false,
          "othergpu": false,
          "network": false,
          "screenshots": true,
          "instpower": false,
          "imggpu": true,
          "janks": false,
          "markers": false,
          "energy": true,
          "sesslabel": false
        },
        "firstBat": 90,
        "lastBat": 87,
        "isCharging": true,
        "mAh": 34,
        "mAAvg": 204,
        "expectedBatteryLifeDuration": 445.266637802124,
        "cpuUsageMedian": 66.68707275390625,
        "cpuUsageAvg": 72.51085562844878,
        "cpuUsageMin": 32.54605484008789,
        "cpuUsageMax": 117.42019653320312,
        "gpuUsageMin": 0,
        "gpuUsageMedian": 15,
        "gpuUsageAvg": 15.199329983249582,
        "gpuUsageMax": 42,
        "memUsageMin": 227,
        "memUsageMedian": 266,
        "memUsageAvg": 270,
        "memUsageMax": 332,
        "minAbsTSCharts": 1558468646746,
        "strictMode": false,
        "internalUserId": 0,
        "sessionDate": 1558468647971,
        "appTrialVersion": false,
        "appTrialExpired": false,
        "appVersionCode": 10000,
        "robust": false,
        "software": 2,
        "zipBackupFile": {
          "type": "disk",
          "path": "/root/a/path.zip",
          "size": 20972307
        }
      },
      {
        "id": "d7a7631d3c1218abc22722c9db9b35c3e77ddfea",
        "device": {
          "androidVersionRelease": "10.0.0",
          "androidSdkInt": 9999,
          "androidIncremental": "iOS-NA",
          "model": "iPhone 5C",
          "name": "iPhone 5C",
          "board": "s5l8950x",
          "manufacturer": "Apple",
          "brand": "Apple",
          "industrialName": "iPhone",
          "serial": "F73LDKZHFFHG",
          "fingerPrint": "hif28938hf89h89230j8jw009",
          "screenWidth": 640,
          "screenHeight": 1136,
          "gpu": {
            "vendor": "Imagination",
            "renderer": "PowerVR SGX543MP3 (triple-core graphics)",
            "glExtensions": [
              "iOS-NA"
            ],
            "glVersion": "iOS-NA"
          },
          "cpu": {
            "name": "Apple-designed ARMv7s",
            "arch": "Apple A6",
            "numCores": 2,
            "minFreq": 0,
            "maxFreq": 1300000
          },
          "batteryVoltage": 3800,
          "batteryTech": "Li-ion",
          "hardware": "N48AP",
          "buildId": "14G60",
          "buildHost": "Box in Cupertino",
          "refreshRate": 60,
          "batteryCapacity": 0
        },
        "app": {
          "name": "Ether Drop!",
          "version": "1.0.0",
          "packageName": "com.zebproj.etherpad",
          "lastUpdated": "iOS-NA",
          "versionCodeStr": "123"
        },
        "user": {
          "userPlayAccount": "ether@gmail.com",
          "dataSet": "asdfwef3r23423423rf"
        },
        "zipName": "data.zip",
        "originalUser": {
          "userPlayAccount": "ether@gmail.com",
          "dataSet": "asdfwef3r23423423rf"
        },
        "owners": {
          "companyId": "asdfae3eer3232423-"
        },
        "isActive": true,
        "imported": false,
        "timePushed": 1558469270909,
        "timePlayed": 605,
        "fpsMin": 2,
        "fpsMax": 60,
        "fpsMedian": 59,
        "fpsStability": 80.56951423785594,
        "stabIndex": 5.028523489932886,
        "metrics": {
          "batt": true,
          "memory": true,
          "fps": true,
          "cpu": true,
          "corefreq": false,
          "coreusage": true,
          "threads": false,
          "othergpu": false,
          "network": false,
          "screenshots": true,
          "instpower": false,
          "imggpu": true,
          "janks": false,
          "markers": false,
          "energy": true,
          "sesslabel": false
        },
        "firstBat": 90,
        "lastBat": 87,
        "isCharging": true,
        "mAh": 34,
        "mAAvg": 204,
        "expectedBatteryLifeDuration": 445.266637802124,
        "cpuUsageMedian": 66.68707275390625,
        "cpuUsageAvg": 72.51085562844878,
        "cpuUsageMin": 32.54605484008789,
        "cpuUsageMax": 117.42019653320312,
        "gpuUsageMin": 0,
        "gpuUsageMedian": 15,
        "gpuUsageAvg": 15.199329983249582,
        "gpuUsageMax": 42,
        "memUsageMin": 227,
        "memUsageMedian": 266,
        "memUsageAvg": 270,
        "memUsageMax": 332,
        "minAbsTSCharts": 1558468646746,
        "strictMode": false,
        "internalUserId": 0,
        "sessionDate": 1558468647971,
        "appTrialVersion": false,
        "appTrialExpired": false,
        "appVersionCode": 10000,
        "robust": false,
        "software": 2,
        "zipBackupFile": {
          "type": "disk",
          "path": "/root/a/path.zip",
          "size": 20972307
        }
      }
    ],
    "totalPages": 76,
    "page": 0,
    "size": 5,
    "totalHits": 376
  }
}
